<?xml version="1.0" encoding="UTF-8" standalone="no"?>
<!DOCTYPE svg PUBLIC "-//W3C//DTD SVG 1.1//EN"
 "http://www.w3.org/Graphics/SVG/1.1/DTD/svg11.dtd">
<!-- Generated by graphviz version 2.38.0 (20140413.2041)
 -->
<!-- Title: models_diagram Pages: 1 -->
<svg width="1228pt" height="866pt"
 viewBox="0.00 0.00 1227.50 866.00" xmlns="http://www.w3.org/2000/svg" xmlns:xlink="http://www.w3.org/1999/xlink">
<g id="graph0" class="graph" transform="scale(1 1) rotate(0) translate(4 862)">
<title>models_diagram</title>
<polygon fill="none" stroke="none" points="-4,4 -4,-862 1223.5,-862 1223.5,4 -4,4"/>
<!-- _diagram_info -->
<g id="node1" class="node"><title>_diagram_info</title>
<text text-anchor="start" x="8" y="-671.6" font-family="Times,serif" font-size="13.00">Models diagram</text>
<text text-anchor="start" x="8" y="-657.6" font-family="Times,serif" font-size="13.00">Date: Mar 10 2018 &#45; 10:45</text>
<text text-anchor="start" x="8" y="-643.6" font-family="Times,serif" font-size="13.00">Migration version: 20171030142634</text>
<text text-anchor="start" x="8" y="-629.6" font-family="Times,serif" font-size="13.00">Generated by RailRoady 1.5.2</text>
<text text-anchor="start" x="8" y="-615.6" font-family="Times,serif" font-size="13.00">http://railroady.prestonlee.com</text>
</g>
<!-- ActivityType -->
<g id="node2" class="node"><title>ActivityType</title>
<path fill="none" stroke="black" d="M618,-218.5C618,-218.5 748,-218.5 748,-218.5 754,-218.5 760,-224.5 760,-230.5 760,-230.5 760,-372.5 760,-372.5 760,-378.5 754,-384.5 748,-384.5 748,-384.5 618,-384.5 618,-384.5 612,-384.5 606,-378.5 606,-372.5 606,-372.5 606,-230.5 606,-230.5 606,-224.5 612,-218.5 618,-218.5"/>
<text text-anchor="middle" x="683" y="-369.3" font-family="Times,serif" font-size="14.00">ActivityType</text>
<polyline fill="none" stroke="black" points="606,-361.5 760,-361.5 "/>
<text text-anchor="start" x="614" y="-346.3" font-family="Times,serif" font-size="14.00">id :INTEGER</text>
<text text-anchor="start" x="614" y="-331.3" font-family="Times,serif" font-size="14.00">name :varchar</text>
<text text-anchor="start" x="614" y="-316.3" font-family="Times,serif" font-size="14.00">identifier :varchar</text>
<text text-anchor="start" x="614" y="-301.3" font-family="Times,serif" font-size="14.00">description :text</text>
<text text-anchor="start" x="614" y="-286.3" font-family="Times,serif" font-size="14.00">points_definition :integer</text>
<text text-anchor="start" x="614" y="-271.3" font-family="Times,serif" font-size="14.00">source_id :integer</text>
<text text-anchor="start" x="614" y="-256.3" font-family="Times,serif" font-size="14.00">category_id :integer</text>
<text text-anchor="start" x="614" y="-241.3" font-family="Times,serif" font-size="14.00">created_at :datetime</text>
<text text-anchor="start" x="614" y="-226.3" font-family="Times,serif" font-size="14.00">updated_at :datetime</text>
</g>
<!-- Rule -->
<g id="node9" class="node"><title>Rule</title>
<path fill="none" stroke="black" d="M332.5,-0.5C332.5,-0.5 457.5,-0.5 457.5,-0.5 463.5,-0.5 469.5,-6.5 469.5,-12.5 469.5,-12.5 469.5,-154.5 469.5,-154.5 469.5,-160.5 463.5,-166.5 457.5,-166.5 457.5,-166.5 332.5,-166.5 332.5,-166.5 326.5,-166.5 320.5,-160.5 320.5,-154.5 320.5,-154.5 320.5,-12.5 320.5,-12.5 320.5,-6.5 326.5,-0.5 332.5,-0.5"/>
<text text-anchor="middle" x="395" y="-151.3" font-family="Times,serif" font-size="14.00">Rule</text>
<polyline fill="none" stroke="black" points="320.5,-143.5 469.5,-143.5 "/>
<text text-anchor="start" x="328.5" y="-128.3" font-family="Times,serif" font-size="14.00">id :INTEGER</text>
<text text-anchor="start" x="328.5" y="-113.3" font-family="Times,serif" font-size="14.00">name :varchar</text>
<text text-anchor="start" x="328.5" y="-98.3" font-family="Times,serif" font-size="14.00">amount :integer</text>
<text text-anchor="start" x="328.5" y="-83.3" font-family="Times,serif" font-size="14.00">begin_period :datetime</text>
<text text-anchor="start" x="328.5" y="-68.3" font-family="Times,serif" font-size="14.00">end_period :datetime</text>
<text text-anchor="start" x="328.5" y="-53.3" font-family="Times,serif" font-size="14.00">activity_type_id :integer</text>
<text text-anchor="start" x="328.5" y="-38.3" font-family="Times,serif" font-size="14.00">badge_id :integer</text>
<text text-anchor="start" x="328.5" y="-23.3" font-family="Times,serif" font-size="14.00">created_at :datetime</text>
<text text-anchor="start" x="328.5" y="-8.3" font-family="Times,serif" font-size="14.00">updated_at :datetime</text>
</g>
<!-- ActivityType&#45;&gt;Rule -->
<g id="edge2" class="edge"><title>ActivityType&#45;&gt;Rule</title>
<path fill="none" stroke="#083f2b" d="M608.393,-212.945C604.635,-209.488 600.829,-206.156 597,-203 560.98,-173.316 516.646,-146.426 478.696,-125.793"/>
<ellipse fill="none" stroke="#083f2b" cx="611.345" cy="-215.726" rx="4.00002" ry="4.00002"/>
<polygon fill="#083f2b" stroke="#083f2b" points="478.507,-125.691 471.832,-116.99 474.103,-123.322 469.7,-120.953 469.7,-120.953 469.7,-120.953 474.103,-123.322 467.568,-124.915 478.507,-125.691 478.507,-125.691"/>
</g>
<!-- Acitivity -->
<g id="node12" class="node"><title>Acitivity</title>
<ellipse fill="none" stroke="black" cx="683" cy="-83.5" rx="42.4939" ry="18"/>
<text text-anchor="middle" x="683" y="-79.8" font-family="Times,serif" font-size="14.00">Acitivity</text>
</g>
<!-- ActivityType&#45;&gt;Acitivity -->
<g id="edge1" class="edge"><title>ActivityType&#45;&gt;Acitivity</title>
<path fill="none" stroke="#56d515" d="M683,-210.116C683,-174.571 683,-136.411 683,-111.598"/>
<ellipse fill="none" stroke="#56d515" cx="683" cy="-214.223" rx="4" ry="4"/>
<polygon fill="#56d515" stroke="#56d515" points="683,-111.511 687.5,-101.511 683,-106.511 683,-101.511 683,-101.511 683,-101.511 683,-106.511 678.5,-101.511 683,-111.511 683,-111.511"/>
</g>
<!-- Activity -->
<g id="node3" class="node"><title>Activity</title>
<path fill="none" stroke="black" d="M177,-226C177,-226 305,-226 305,-226 311,-226 317,-232 317,-238 317,-238 317,-365 317,-365 317,-371 311,-377 305,-377 305,-377 177,-377 177,-377 171,-377 165,-371 165,-365 165,-365 165,-238 165,-238 165,-232 171,-226 177,-226"/>
<text text-anchor="middle" x="241" y="-361.8" font-family="Times,serif" font-size="14.00">Activity</text>
<polyline fill="none" stroke="black" points="165,-354 317,-354 "/>
<text text-anchor="start" x="173" y="-338.8" font-family="Times,serif" font-size="14.00">id :INTEGER</text>
<text text-anchor="start" x="173" y="-323.8" font-family="Times,serif" font-size="14.00">title :varchar</text>
<text text-anchor="start" x="173" y="-308.8" font-family="Times,serif" font-size="14.00">details :text</text>
<text text-anchor="start" x="173" y="-293.8" font-family="Times,serif" font-size="14.00">points_of_action :integer</text>
<text text-anchor="start" x="173" y="-278.8" font-family="Times,serif" font-size="14.00">activity_type_id :integer</text>
<text text-anchor="start" x="173" y="-263.8" font-family="Times,serif" font-size="14.00">user_id :integer</text>
<text text-anchor="start" x="173" y="-248.8" font-family="Times,serif" font-size="14.00">created_at :datetime</text>
<text text-anchor="start" x="173" y="-233.8" font-family="Times,serif" font-size="14.00">updated_at :datetime</text>
</g>
<!-- Activity&#45;&gt;Rule -->
<g id="edge3" class="edge"><title>Activity&#45;&gt;Rule</title>
<path fill="none" stroke="#97f93a" d="M300.032,-217.702C310.033,-203.674 320.463,-189.046 330.593,-174.837"/>
<polygon fill="#97f93a" stroke="#97f93a" points="300.019,-217.72 290.55,-223.25 297.116,-221.791 294.214,-225.863 294.214,-225.863 294.214,-225.863 297.116,-221.791 297.878,-228.475 300.019,-217.72 300.019,-217.72"/>
<polygon fill="#97f93a" stroke="#97f93a" points="330.713,-174.669 340.182,-169.139 333.615,-170.598 336.518,-166.527 336.518,-166.527 336.518,-166.527 333.615,-170.598 332.854,-163.914 330.713,-174.669 330.713,-174.669"/>
</g>
<!-- ApplicationRecord -->
<g id="node4" class="node"><title>ApplicationRecord</title>
<ellipse fill="none" stroke="black" cx="844" cy="-647" rx="77.1866" ry="18"/>
<text text-anchor="middle" x="844" y="-643.3" font-family="Times,serif" font-size="14.00">ApplicationRecord</text>
</g>
<!-- BadgeGroup -->
<g id="node5" class="node"><title>BadgeGroup</title>
<path fill="none" stroke="black" d="M462.5,-594C462.5,-594 569.5,-594 569.5,-594 575.5,-594 581.5,-600 581.5,-606 581.5,-606 581.5,-688 581.5,-688 581.5,-694 575.5,-700 569.5,-700 569.5,-700 462.5,-700 462.5,-700 456.5,-700 450.5,-694 450.5,-688 450.5,-688 450.5,-606 450.5,-606 450.5,-600 456.5,-594 462.5,-594"/>
<text text-anchor="middle" x="516" y="-684.8" font-family="Times,serif" font-size="14.00">BadgeGroup</text>
<polyline fill="none" stroke="black" points="450.5,-677 581.5,-677 "/>
<text text-anchor="start" x="458.5" y="-661.8" font-family="Times,serif" font-size="14.00">id :INTEGER</text>
<text text-anchor="start" x="458.5" y="-646.8" font-family="Times,serif" font-size="14.00">name :varchar</text>
<text text-anchor="start" x="458.5" y="-631.8" font-family="Times,serif" font-size="14.00">description :text</text>
<text text-anchor="start" x="458.5" y="-616.8" font-family="Times,serif" font-size="14.00">created_at :datetime</text>
<text text-anchor="start" x="458.5" y="-601.8" font-family="Times,serif" font-size="14.00">updated_at :datetime</text>
</g>
<!-- Badge -->
<g id="node11" class="node"><title>Badge</title>
<path fill="none" stroke="black" d="M420.5,-203.5C420.5,-203.5 575.5,-203.5 575.5,-203.5 581.5,-203.5 587.5,-209.5 587.5,-215.5 587.5,-215.5 587.5,-387.5 587.5,-387.5 587.5,-393.5 581.5,-399.5 575.5,-399.5 575.5,-399.5 420.5,-399.5 420.5,-399.5 414.5,-399.5 408.5,-393.5 408.5,-387.5 408.5,-387.5 408.5,-215.5 408.5,-215.5 408.5,-209.5 414.5,-203.5 420.5,-203.5"/>
<text text-anchor="middle" x="498" y="-384.3" font-family="Times,serif" font-size="14.00">Badge</text>
<polyline fill="none" stroke="black" points="408.5,-376.5 587.5,-376.5 "/>
<text text-anchor="start" x="416.5" y="-361.3" font-family="Times,serif" font-size="14.00">id :INTEGER</text>
<text text-anchor="start" x="416.5" y="-346.3" font-family="Times,serif" font-size="14.00">name :varchar</text>
<text text-anchor="start" x="416.5" y="-331.3" font-family="Times,serif" font-size="14.00">description :text</text>
<text text-anchor="start" x="416.5" y="-316.3" font-family="Times,serif" font-size="14.00">position :integer</text>
<text text-anchor="start" x="416.5" y="-301.3" font-family="Times,serif" font-size="14.00">picture_file_name :varchar</text>
<text text-anchor="start" x="416.5" y="-286.3" font-family="Times,serif" font-size="14.00">picture_content_type :varchar</text>
<text text-anchor="start" x="416.5" y="-271.3" font-family="Times,serif" font-size="14.00">picture_file_size :integer</text>
<text text-anchor="start" x="416.5" y="-256.3" font-family="Times,serif" font-size="14.00">picture_updated_at :datetime</text>
<text text-anchor="start" x="416.5" y="-241.3" font-family="Times,serif" font-size="14.00">badge_group_id :integer</text>
<text text-anchor="start" x="416.5" y="-226.3" font-family="Times,serif" font-size="14.00">created_at :datetime</text>
<text text-anchor="start" x="416.5" y="-211.3" font-family="Times,serif" font-size="14.00">updated_at :datetime</text>
</g>
<!-- BadgeGroup&#45;&gt;Badge -->
<g id="edge4" class="edge"><title>BadgeGroup&#45;&gt;Badge</title>
<path fill="none" stroke="#5e01fd" d="M512.845,-585.797C510.307,-537.363 506.676,-468.072 503.641,-410.142"/>
<ellipse fill="none" stroke="#5e01fd" cx="513.057" cy="-589.835" rx="4" ry="4"/>
<polygon fill="#5e01fd" stroke="#5e01fd" points="503.624,-409.823 507.594,-399.602 503.362,-404.83 503.101,-399.837 503.101,-399.837 503.101,-399.837 503.362,-404.83 498.607,-400.073 503.624,-409.823 503.624,-409.823"/>
</g>
<!-- Level -->
<g id="node6" class="node"><title>Level</title>
<path fill="none" stroke="black" d="M951.5,-571.5C951.5,-571.5 1058.5,-571.5 1058.5,-571.5 1064.5,-571.5 1070.5,-577.5 1070.5,-583.5 1070.5,-583.5 1070.5,-710.5 1070.5,-710.5 1070.5,-716.5 1064.5,-722.5 1058.5,-722.5 1058.5,-722.5 951.5,-722.5 951.5,-722.5 945.5,-722.5 939.5,-716.5 939.5,-710.5 939.5,-710.5 939.5,-583.5 939.5,-583.5 939.5,-577.5 945.5,-571.5 951.5,-571.5"/>
<text text-anchor="middle" x="1005" y="-707.3" font-family="Times,serif" font-size="14.00">Level</text>
<polyline fill="none" stroke="black" points="939.5,-699.5 1070.5,-699.5 "/>
<text text-anchor="start" x="947.5" y="-684.3" font-family="Times,serif" font-size="14.00">id :INTEGER</text>
<text text-anchor="start" x="947.5" y="-669.3" font-family="Times,serif" font-size="14.00">name :varchar</text>
<text text-anchor="start" x="947.5" y="-654.3" font-family="Times,serif" font-size="14.00">description :text</text>
<text text-anchor="start" x="947.5" y="-639.3" font-family="Times,serif" font-size="14.00">start_range :integer</text>
<text text-anchor="start" x="947.5" y="-624.3" font-family="Times,serif" font-size="14.00">end_range :integer</text>
<text text-anchor="start" x="947.5" y="-609.3" font-family="Times,serif" font-size="14.00">position :integer</text>
<text text-anchor="start" x="947.5" y="-594.3" font-family="Times,serif" font-size="14.00">created_at :datetime</text>
<text text-anchor="start" x="947.5" y="-579.3" font-family="Times,serif" font-size="14.00">updated_at :datetime</text>
</g>
<!-- User -->
<g id="node7" class="node"><title>User</title>
<path fill="none" stroke="black" d="M244,-436.5C244,-436.5 420,-436.5 420,-436.5 426,-436.5 432,-442.5 432,-448.5 432,-448.5 432,-845.5 432,-845.5 432,-851.5 426,-857.5 420,-857.5 420,-857.5 244,-857.5 244,-857.5 238,-857.5 232,-851.5 232,-845.5 232,-845.5 232,-448.5 232,-448.5 232,-442.5 238,-436.5 244,-436.5"/>
<text text-anchor="middle" x="332" y="-842.3" font-family="Times,serif" font-size="14.00">User</text>
<polyline fill="none" stroke="black" points="232,-834.5 432,-834.5 "/>
<text text-anchor="start" x="240" y="-819.3" font-family="Times,serif" font-size="14.00">id :INTEGER</text>
<text text-anchor="start" x="240" y="-804.3" font-family="Times,serif" font-size="14.00">login :varchar</text>
<text text-anchor="start" x="240" y="-789.3" font-family="Times,serif" font-size="14.00">points :integer</text>
<text text-anchor="start" x="240" y="-774.3" font-family="Times,serif" font-size="14.00">level_id :integer</text>
<text text-anchor="start" x="240" y="-759.3" font-family="Times,serif" font-size="14.00">created_at :datetime</text>
<text text-anchor="start" x="240" y="-744.3" font-family="Times,serif" font-size="14.00">updated_at :datetime</text>
<text text-anchor="start" x="240" y="-729.3" font-family="Times,serif" font-size="14.00">provider :varchar</text>
<text text-anchor="start" x="240" y="-714.3" font-family="Times,serif" font-size="14.00">uid :varchar</text>
<text text-anchor="start" x="240" y="-699.3" font-family="Times,serif" font-size="14.00">encrypted_password :varchar</text>
<text text-anchor="start" x="240" y="-684.3" font-family="Times,serif" font-size="14.00">reset_password_token :varchar</text>
<text text-anchor="start" x="240" y="-669.3" font-family="Times,serif" font-size="14.00">reset_password_sent_at :datetime</text>
<text text-anchor="start" x="240" y="-654.3" font-family="Times,serif" font-size="14.00">remember_created_at :datetime</text>
<text text-anchor="start" x="240" y="-639.3" font-family="Times,serif" font-size="14.00">sign_in_count :integer</text>
<text text-anchor="start" x="240" y="-624.3" font-family="Times,serif" font-size="14.00">current_sign_in_at :datetime</text>
<text text-anchor="start" x="240" y="-609.3" font-family="Times,serif" font-size="14.00">last_sign_in_at :datetime</text>
<text text-anchor="start" x="240" y="-594.3" font-family="Times,serif" font-size="14.00">current_sign_in_ip :varchar</text>
<text text-anchor="start" x="240" y="-579.3" font-family="Times,serif" font-size="14.00">last_sign_in_ip :varchar</text>
<text text-anchor="start" x="240" y="-564.3" font-family="Times,serif" font-size="14.00">confirmation_token :varchar</text>
<text text-anchor="start" x="240" y="-549.3" font-family="Times,serif" font-size="14.00">confirmed_at :datetime</text>
<text text-anchor="start" x="240" y="-534.3" font-family="Times,serif" font-size="14.00">confirmation_sent_at :datetime</text>
<text text-anchor="start" x="240" y="-519.3" font-family="Times,serif" font-size="14.00">unconfirmed_email :varchar</text>
<text text-anchor="start" x="240" y="-504.3" font-family="Times,serif" font-size="14.00">name :varchar</text>
<text text-anchor="start" x="240" y="-489.3" font-family="Times,serif" font-size="14.00">nickname :varchar</text>
<text text-anchor="start" x="240" y="-474.3" font-family="Times,serif" font-size="14.00">image :varchar</text>
<text text-anchor="start" x="240" y="-459.3" font-family="Times,serif" font-size="14.00">email :varchar</text>
<text text-anchor="start" x="240" y="-444.3" font-family="Times,serif" font-size="14.00">tokens :text</text>
</g>
<!-- User&#45;&gt;Activity -->
<g id="edge6" class="edge"><title>User&#45;&gt;Activity</title>
<path fill="none" stroke="#97d1c6" d="M274.373,-428.472C270.543,-414.016 266.837,-400.026 263.374,-386.956"/>
<ellipse fill="none" stroke="#97d1c6" cx="275.419" cy="-432.423" rx="4.00001" ry="4.00001"/>
<polygon fill="#97d1c6" stroke="#97d1c6" points="263.336,-386.813 265.125,-375.994 262.056,-381.98 260.775,-377.147 260.775,-377.147 260.775,-377.147 262.056,-381.98 256.425,-378.299 263.336,-386.813 263.336,-386.813"/>
</g>
<!-- User&#45;&gt;Badge -->
<g id="edge5" class="edge"><title>User&#45;&gt;Badge</title>
<path fill="none" stroke="#328224" d="M436.551,-429.656C439.969,-422.581 443.336,-415.615 446.624,-408.81"/>
<polygon fill="#328224" stroke="#328224" points="436.505,-429.75 428.102,-436.796 434.33,-434.252 432.154,-438.754 432.154,-438.754 432.154,-438.754 434.33,-434.252 436.206,-440.712 436.505,-429.75 436.505,-429.75"/>
<polygon fill="#328224" stroke="#328224" points="446.707,-408.639 455.11,-401.594 448.883,-404.138 451.058,-399.636 451.058,-399.636 451.058,-399.636 448.883,-404.138 447.006,-397.678 446.707,-408.639 446.707,-408.639"/>
</g>
<!-- Vote -->
<g id="node13" class="node"><title>Vote</title>
<ellipse fill="none" stroke="black" cx="363" cy="-301.5" rx="27.8951" ry="18"/>
<text text-anchor="middle" x="363" y="-297.8" font-family="Times,serif" font-size="14.00">Vote</text>
</g>
<!-- User&#45;&gt;Vote -->
<g id="edge7" class="edge"><title>User&#45;&gt;Vote</title>
<path fill="none" stroke="#999046" d="M351.646,-428.31C355.208,-388.841 358.455,-352.865 360.555,-329.59"/>
<ellipse fill="none" stroke="#999046" cx="351.285" cy="-432.306" rx="4" ry="4"/>
<polygon fill="#999046" stroke="#999046" points="360.565,-329.483 365.945,-319.928 361.014,-324.503 361.464,-319.523 361.464,-319.523 361.464,-319.523 361.014,-324.503 356.982,-319.119 360.565,-329.483 360.565,-329.483"/>
</g>
<!-- Source -->
<g id="node8" class="node"><title>Source</title>
<path fill="none" stroke="black" d="M629.5,-594C629.5,-594 736.5,-594 736.5,-594 742.5,-594 748.5,-600 748.5,-606 748.5,-606 748.5,-688 748.5,-688 748.5,-694 742.5,-700 736.5,-700 736.5,-700 629.5,-700 629.5,-700 623.5,-700 617.5,-694 617.5,-688 617.5,-688 617.5,-606 617.5,-606 617.5,-600 623.5,-594 629.5,-594"/>
<text text-anchor="middle" x="683" y="-684.8" font-family="Times,serif" font-size="14.00">Source</text>
<polyline fill="none" stroke="black" points="617.5,-677 748.5,-677 "/>
<text text-anchor="start" x="625.5" y="-661.8" font-family="Times,serif" font-size="14.00">id :INTEGER</text>
<text text-anchor="start" x="625.5" y="-646.8" font-family="Times,serif" font-size="14.00">name :varchar</text>
<text text-anchor="start" x="625.5" y="-631.8" font-family="Times,serif" font-size="14.00">token :varchar</text>
<text text-anchor="start" x="625.5" y="-616.8" font-family="Times,serif" font-size="14.00">created_at :datetime</text>
<text text-anchor="start" x="625.5" y="-601.8" font-family="Times,serif" font-size="14.00">updated_at :datetime</text>
</g>
<!-- Source&#45;&gt;ActivityType -->
<g id="edge8" class="edge"><title>Source&#45;&gt;ActivityType</title>
<path fill="none" stroke="#52a259" d="M683,-585.805C683,-533.064 683,-455.588 683,-394.981"/>
<ellipse fill="none" stroke="#52a259" cx="683" cy="-589.83" rx="4" ry="4"/>
<polygon fill="#52a259" stroke="#52a259" points="683,-394.64 687.5,-384.64 683,-389.64 683,-384.64 683,-384.64 683,-384.64 683,-389.64 678.5,-384.64 683,-394.64 683,-394.64"/>
</g>
<!-- Category -->
<g id="node10" class="node"><title>Category</title>
<path fill="none" stroke="black" d="M1100.5,-601.5C1100.5,-601.5 1207.5,-601.5 1207.5,-601.5 1213.5,-601.5 1219.5,-607.5 1219.5,-613.5 1219.5,-613.5 1219.5,-680.5 1219.5,-680.5 1219.5,-686.5 1213.5,-692.5 1207.5,-692.5 1207.5,-692.5 1100.5,-692.5 1100.5,-692.5 1094.5,-692.5 1088.5,-686.5 1088.5,-680.5 1088.5,-680.5 1088.5,-613.5 1088.5,-613.5 1088.5,-607.5 1094.5,-601.5 1100.5,-601.5"/>
<text text-anchor="middle" x="1154" y="-677.3" font-family="Times,serif" font-size="14.00">Category</text>
<polyline fill="none" stroke="black" points="1088.5,-669.5 1219.5,-669.5 "/>
<text text-anchor="start" x="1096.5" y="-654.3" font-family="Times,serif" font-size="14.00">id :INTEGER</text>
<text text-anchor="start" x="1096.5" y="-639.3" font-family="Times,serif" font-size="14.00">name :varchar</text>
<text text-anchor="start" x="1096.5" y="-624.3" font-family="Times,serif" font-size="14.00">created_at :datetime</text>
<text text-anchor="start" x="1096.5" y="-609.3" font-family="Times,serif" font-size="14.00">updated_at :datetime</text>
</g>
</g>
</svg>
